<?xml version="1.0" encoding="UTF-8"?>
<svg width="96px" height="60px" viewBox="0 0 96 60" version="1.1" xmlns="http://www.w3.org/2000/svg" xmlns:xlink="http://www.w3.org/1999/xlink">
    <title>Capsule - Slice_wide</title>
    <g id="Page-1" stroke="none" stroke-width="1" fill="none" fill-rule="evenodd">
        <g id="Capsule---Tick" transform="translate(0.000000, 6.000000)">
            <path d="M35.3685915,18.8902077 L20.9444145,33.3234421 C20.4954128,33.7744807 19.9341608,34 19.3729088,34 C18.8116568,34 18.1942795,33.7744807 17.8014031,33.3234421 L10.6735024,26.2195846 C9.77549919,25.3175074 9.77549919,23.9080119 10.6735024,23.0059347 C11.5715057,22.1038576 12.9746357,22.1038576 13.872639,23.0059347 L19.3729088,28.5311573 L32.1694549,15.6765579 C33.0674582,14.7744807 34.4705882,14.7744807 35.3685915,15.6765579 C36.2104695,16.578635 36.2104695,18.0445104 35.3685915,18.8902077 Z" id="Path" fill="#000000"></path>
            <path d="M24,48 C37.254834,48 48,37.254834 48,24 C48,10.745166 37.254834,0 24,0 C10.745166,0 0,10.745166 0,24 C0,37.254834 10.745166,48 24,48 Z M24,1.37931034 C36.4930619,1.37931034 46.6206897,11.5069381 46.6206897,24 C46.6206897,36.4930619 36.4930619,46.6206897 24,46.6206897 C11.5069381,46.6206897 1.37931034,36.4930619 1.37931034,24 C1.37931034,18.0006201 3.76255473,12.2469592 8.00475695,8.00475695 C12.2469592,3.76255473 18.0006201,1.37931034 24,1.37931034 L24,1.37931034 Z" id="Shape" fill="#000000" fill-rule="nonzero"></path>
            <rect id="Rectangle" stroke="#000000" x="1" y="0" width="94" height="48" rx="24"></rect>
        </g>
        <g id="Capsule---Search" transform="translate(57.000000, 17.000000)" fill="#000000" fill-rule="nonzero">
            <g id="Group">
                <path d="M17.5633629,16.0925807 L25.6909076,24.2201255 L24.2201255,25.6909076 L16.0925807,17.5633629 C12.2123919,20.708607 6.50379434,20.4762243 2.89378502,16.866215 C-0.964595008,13.0078349 -0.964595008,6.75216506 2.89378502,2.89378502 C6.75216506,-0.964595008 13.0078349,-0.964595008 16.866215,2.89378502 C20.4762243,6.50379434 20.708607,12.2123919 17.5633629,16.0925807 L17.5633629,16.0925807 Z M15.3589407,15.4319251 C18.3848761,12.4059896 18.368538,7.48364094 15.3224485,4.43755146 C12.2763591,1.39146197 7.35401035,1.37512388 4.32807492,4.40105931 C1.30213949,7.42699464 1.31847768,12.3493434 4.36456706,15.3954329 C7.41065655,18.4415223 12.3330054,18.4578605 15.3589407,15.4319251 L15.3589407,15.4319251 Z" id="Shape"></path>
            </g>
        </g>
    </g>
</svg>